# Made using Asset Forge (www.assetforge.io) version 1.3 

newmtl _defaultMat (Instance)
Ka 0.000000 0.000000 0.000000 
Kd 1 1 1 
Ks 0.330000 0.330000 0.330000 

newmtl glass (Instance)
Ka 0.000000 0.000000 0.000000 
Kd 0.298 0.314 0.365 
Ks 0.330000 0.330000 0.330000 

newmtl _defaultMat (Instance) (Instance)
Ka 0.000000 0.000000 0.000000 
Kd 1 1 1 
Ks 0.330000 0.330000 0.330000 

newmtl glass (Instance) (Instance)
Ka 0.000000 0.000000 0.000000 
Kd 0.298 0.314 0.365 
Ks 0.330000 0.330000 0.330000 

newmtl light (Instance)
Ka 0.000000 0.000000 0.000000 
Kd 1 1 1 
Ks 0.330000 0.330000 0.330000 

newmtl tire (Instance)
Ka 0.000000 0.000000 0.000000 
Kd 0.298 0.314 0.365 
Ks 0.330000 0.330000 0.330000 

newmtl tire (Instance) (Instance)
Ka 0.000000 0.000000 0.000000 
Kd 0.298 0.314 0.365 
Ks 0.330000 0.330000 0.330000 

