%YAML 1.1
%TAG !u! tag:unity3d.com,2011:
--- !u!114 &1511232775131041626
MonoBehaviour:
  m_ObjectHideFlags: 0
  m_CorrespondingSourceObject: {fileID: 0}
  m_PrefabInstance: {fileID: 0}
  m_PrefabAsset: {fileID: 0}
  m_GameObject: {fileID: 5118917914336631330}
  m_Enabled: 1
  m_EditorHideFlags: 0
  m_Script: {fileID: 11500000, guid: 207b23af451e5814fa1c28431a0628af, type: 3}
  m_Name: 
  m_EditorClassIdentifier: 
  meshRenderer: {fileID: 5118917914334430432}
  materials: 01000000
--- !u!1001 &5118917914336599168
PrefabInstance:
  m_ObjectHideFlags: 0
  serializedVersion: 2
  m_Modification:
    m_TransformParent: {fileID: 0}
    m_Modifications:
    - target: {fileID: 100002, guid: c7484a792e7ef9c4eaea4f4e625554ab, type: 3}
      propertyPath: m_Name
      value: Truck Variant
      objectReference: {fileID: 0}
    - target: {fileID: 400002, guid: c7484a792e7ef9c4eaea4f4e625554ab, type: 3}
      propertyPath: m_LocalPosition.x
      value: -0
      objectReference: {fileID: 0}
    - target: {fileID: 400002, guid: c7484a792e7ef9c4eaea4f4e625554ab, type: 3}
      propertyPath: m_LocalPosition.y
      value: 0
      objectReference: {fileID: 0}
    - target: {fileID: 400002, guid: c7484a792e7ef9c4eaea4f4e625554ab, type: 3}
      propertyPath: m_LocalPosition.z
      value: 0
      objectReference: {fileID: 0}
    - target: {fileID: 400002, guid: c7484a792e7ef9c4eaea4f4e625554ab, type: 3}
      propertyPath: m_LocalRotation.x
      value: 0
      objectReference: {fileID: 0}
    - target: {fileID: 400002, guid: c7484a792e7ef9c4eaea4f4e625554ab, type: 3}
      propertyPath: m_LocalRotation.y
      value: -0
      objectReference: {fileID: 0}
    - target: {fileID: 400002, guid: c7484a792e7ef9c4eaea4f4e625554ab, type: 3}
      propertyPath: m_LocalRotation.z
      value: -0
      objectReference: {fileID: 0}
    - target: {fileID: 400002, guid: c7484a792e7ef9c4eaea4f4e625554ab, type: 3}
      propertyPath: m_LocalRotation.w
      value: 1
      objectReference: {fileID: 0}
    - target: {fileID: 400002, guid: c7484a792e7ef9c4eaea4f4e625554ab, type: 3}
      propertyPath: m_RootOrder
      value: 0
      objectReference: {fileID: 0}
    - target: {fileID: 400002, guid: c7484a792e7ef9c4eaea4f4e625554ab, type: 3}
      propertyPath: m_LocalEulerAnglesHint.x
      value: 0
      objectReference: {fileID: 0}
    - target: {fileID: 400002, guid: c7484a792e7ef9c4eaea4f4e625554ab, type: 3}
      propertyPath: m_LocalEulerAnglesHint.y
      value: 0
      objectReference: {fileID: 0}
    - target: {fileID: 400002, guid: c7484a792e7ef9c4eaea4f4e625554ab, type: 3}
      propertyPath: m_LocalEulerAnglesHint.z
      value: 0
      objectReference: {fileID: 0}
    - target: {fileID: 400000, guid: c7484a792e7ef9c4eaea4f4e625554ab, type: 3}
      propertyPath: m_LocalPosition.y
      value: 0.23
      objectReference: {fileID: 0}
    m_RemovedComponents: []
  m_SourcePrefab: {fileID: 100100000, guid: c7484a792e7ef9c4eaea4f4e625554ab, type: 3}
--- !u!1 &5118917914336631330 stripped
GameObject:
  m_CorrespondingSourceObject: {fileID: 100002, guid: c7484a792e7ef9c4eaea4f4e625554ab,
    type: 3}
  m_PrefabInstance: {fileID: 5118917914336599168}
  m_PrefabAsset: {fileID: 0}
--- !u!23 &5118917914334430432 stripped
MeshRenderer:
  m_CorrespondingSourceObject: {fileID: 2300000, guid: c7484a792e7ef9c4eaea4f4e625554ab,
    type: 3}
  m_PrefabInstance: {fileID: 5118917914336599168}
  m_PrefabAsset: {fileID: 0}
